Assignment05
…
$reason
[1] "OK"

$message
[1] "Success: (200) OK"

assignment_url <- content(assignment_url, as = "text")
assignment_matrix <- fromJSON(assignment_url)
assignment_data <- as_tibble(assignment_matrix[2:nrow(assignment_matrix), ],
                      .name_repair = "minimal")

names(assignment_data) <- assignment_matrix[1, ]
assignment_data

# A tibble: 1,319 × 7
   NAME                   B19013_001E B29002_007E B29003_002E state county tract
   <chr>                  <chr>       <chr>       <chr>       <chr> <chr>  <chr>
 1 Census Tract 6302, Co… 37422       92          65          17    031    6302…
 2 Census Tract 5807, Co… 47000       407         578         17    031    5807…
 3 Census Tract 5906, Co… 46033       225         171         17    031    5906…
 4 Census Tract 6007, Co… 45294       462         298         17    031    6007…
 5 Census Tract 6119, Co… 24507       0           368         17    031    6119…
 6 Census Tract 8045.05,… 71438       592         203         17    031    8045…
 7 Census Tract 8047.01,… 69472       990         220         17    031    8047…
 8 Census Tract 8047.06,… 115500      575         15          17    031    8047…
 9 Census Tract 8240.05,… 112125      1250        144         17    031    8240…
10 Census Tract 8240.06,… 129667      936         117         17    031    8240…
# ℹ 1,309 more rows
…
